{
    "campaign" : "Cormyr",
    "startDate": {
        "day": 24,
        "month": 10,
        "year": 1500
    },
    "monthData": {
        "Hammer" : 31,
        "Alturiak" : 30,
        "Ches" : 30,
        "Tarsakh" : 31,
        "Mirtul" : 30,
        "Kythorn" : 30,
        "Flamerule" : 31,
        "Elesias" : 30,
        "Eleint" : 31,
        "Marpenoth" : 30,
        "Uktar" : 31,
        "Nightal" : 30
    },
    "holidays": [
        { 
            "name": "MidWinter",
            "month": 1,
            "day": 31
        },
        {
            "name": "Spring Equinox",
            "month": 3,
            "day": 19
        },
        {
            "name": "Greengrass",
            "month": 4,
            "day": 31
        },
        {
            "name": "Summer Solstice",
            "month": 6,
            "day": 20
        },
        {
            "name": "Midsummer",
            "month": 7,
            "day": 31
        },
        {
            "name": "Autumn Equinox",
            "month": 9,
            "day": 21
        },
        {
            "name": "HarvestTide",
            "month": 9,
            "day": 31
        },
        {
            "name": "The Feast of the Moon",
            "month": 11,
            "day": 31
            
        },
        {
            "name": "Winter Solstice",
            "month": 12,
            "day": 20
        }
    ]
}